project · RStudio Pro
…
! Join columns in `x` must be present in the data.
✖ Problem with `name`.
Backtrace:
 1. ... %>% ...
 5. dplyr:::left_join.data.frame(., airports, join_by(name))
> flights <- flights2.0 %>% 
+  left_join(airports, join_by(name)) %>% 
+   group_by("Destination" = dest) %>% 
+   summarize(
+     "Average Arrival Delay" = mean(arr_delay, na.rm = TRUE),
+     "Distance" = sum(distance, na.rm = TRUE)
+   ) 
> rm(flights)
> flights
# A tibble: 336,776 × 19
    year month   day dep_time sched_dep_time dep_delay arr_time sched_arr_time arr_delay carrier flight tailnum origin
   <int> <int> <int>    <int>          <int>     <dbl>    <int>          <int>     <dbl> <chr>    <int> <chr>   <chr> 
 1  2013     1     1      517            515         2      830            819        11 UA        1545 N14228  EWR   
 2  2013     1     1      533            529         4      850            830        20 UA        1714 N24211  LGA   
 3  2013     1     1      542            540         2      923            850        33 AA        1141 N619AA  JFK   
 4  2013     1     1      544            545        -1     1004           1022       -18 B6         725 N804JB  JFK   
 5  2013     1     1      554            600        -6      812            837       -25 DL         461 N668DN  LGA   
 6  2013     1     1      554            558        -4      740            728        12 UA        1696 N39463  EWR   
 7  2013     1     1      555            600        -5      913            854        19 B6         507 N516JB  EWR   
 8  2013     1     1      557            600        -3      709            723       -14 EV        5708 N829AS  LGA   
 9  2013     1     1      557            600        -3      838            846        -8 B6          79 N593JB  JFK   
10  2013     1     1      558            600        -2      753            745         8 AA         301 N3ALAA  LGA   
# ℹ 336,766 more rows
# ℹ 6 more variables: dest <chr>, air_time <dbl>, distance <dbl>, hour <dbl>, minute <dbl>, time_hour <dttm>
# ℹ Use `print(n = ...)` to see more rows
…
